Mapping and Plotting
…
# Included datasets
countypop

## # A tibble: 3,142 x 4
##    fips  abbr  county          pop_2015
##    <chr> <chr> <chr>              <dbl>
##  1 01001 AL    Autauga County     55347
##  2 01003 AL    Baldwin County    203709
##  3 01005 AL    Barbour County     26489
##  4 01007 AL    Bibb County        22583
##  5 01009 AL    Blount County      57673
##  6 01011 AL    Bullock County     10696
##  7 01013 AL    Butler County      20154
##  8 01015 AL    Calhoun County    115620
##  9 01017 AL    Chambers County    34123
## 10 01019 AL    Cherokee County    25859
## # ... with 3,132 more rows

statepop

## # A tibble: 51 x 4
##    fips  abbr  full                 pop_2015
##    <chr> <chr> <chr>                   <dbl>
##  1 01    AL    Alabama               4858979
##  2 02    AK    Alaska                 738432
##  3 04    AZ    Arizona               6828065
##  4 05    AR    Arkansas              2978204
##  5 06    CA    California           39144818
##  6 08    CO    Colorado              5456574
##  7 09    CT    Connecticut           3590886
##  8 10    DE    Delaware               945934
##  9 11    DC    District of Columbia   672228
## 10 12    FL    Florida              20271272
## # ... with 41 more rows

countypov

## # A tibble: 3,142 x 4
##    fips  abbr  county          pct_pov_2014
##    <chr> <chr> <chr>                  <dbl>
##  1 01001 AL    Autauga County          13.1
##  2 01003 AL    Baldwin County          13  
##  3 01005 AL    Barbour County          25.4
##  4 01007 AL    Bibb County             18.1
##  5 01009 AL    Blount County           17.5
##  6 01011 AL    Bullock County          35.1
##  7 01013 AL    Butler County           25  
##  8 01015 AL    Calhoun County          20.5
##  9 01017 AL    Chambers County         21.3
## 10 01019 AL    Cherokee County         18.6
## # ... with 3,132 more rows

statepov

## # A tibble: 51 x 4
##    fips  abbr  full                 pct_pov_2014
##    <chr> <chr> <chr>                       <dbl>
##  1 01    AL    Alabama                      19.2
##  2 02    AK    Alaska                       11.4
##  3 04    AZ    Arizona                      18.2
##  4 05    AR    Arkansas                     18.7
##  5 06    CA    California                   16.4
##  6 08    CO    Colorado                     12.1
##  7 09    CT    Connecticut                  10.8
##  8 10    DE    Delaware                     13  
##  9 11    DC    District of Columbia         18.4
## 10 12    FL    Florida                      16.6
## # ... with 41 more rows

citypop

## # A tibble: 51 x 6
##       lon   lat state                abbr  most_populous_city city_pop
##     <dbl> <dbl> <chr>                <chr> <chr>                 <dbl>
##  1  -86.8  33.6 Alabama              AL    Birmingham           212237
##  2 -150.   61.2 Alaska               AK    Anchorage            291826
##  3 -112.   33.4 Arizona              AZ    Phoenix             1445632
##  4  -92.3  34.7 Arkansas             AR    Little Rock          193524
##  5 -118.   34.0 California           CA    Los Angeles         3792621
##  6 -105.   39.8 Colorado             CO    Denver               600158
##  7  -73.2  41.2 Connecticut          CT    Bridgeport           144229
##  8  -75.6  39.8 Delaware             DE    Wilmington            70851
##  9  -77.0  38.9 District of Columbia DC    Washington           693972
## 10  -81.7  30.3 Florida              FL    Jacksonville         880619
## # ... with 41 more rows

earthquakes

## # A tibble: 2,254 x 3
##      lon   lat   mag
##    <dbl> <dbl> <dbl>
##  1 -118.  35.7  2.79
##  2 -118.  36.3  3.1 
##  3 -118.  36.2  2.74
##  4 -125.  40.4  2.77
##  5 -118.  35.7  2.59
##  6 -118.  35.7  2.82
##  7 -118.  35.7  2.78
##  8 -124.  40.3  3.42
##  9 -124.  41.7  2.5 
## 10 -119.  35.3  2.58
## # ... with 2,244 more rows
…
