Coronavirus US - USA Facts
…
}

The function is tested as it evolves:

readRunUSAFacts(maxDate="2021-05-27")

## # A tibble: 3,195 x 4
##    countyFIPS countyName            state    pop
##         <dbl> <chr>                 <chr>  <dbl>
##  1          0 Statewide Unallocated AL         0
##  2       1001 Autauga County        AL     55869
##  3       1003 Baldwin County        AL    223234
##  4       1005 Barbour County        AL     24686
##  5       1007 Bibb County           AL     22394
##  6       1009 Blount County         AL     57826
##  7       1011 Bullock County        AL     10101
##  8       1013 Butler County         AL     19448
##  9       1015 Calhoun County        AL    113605
## 10       1017 Chambers County       AL     33254
## # ... with 3,185 more rows
…
