Coronavirus US - USA Facts
…
vaxPartialRaw_20220309

## # A tibble: 1,480,110 x 10
##    date       FIPS  countyName    state vxcpoppct vxcgte18pct vxcgte65pct    pop
##    <date>     <chr> <chr>         <chr>     <dbl>       <dbl>       <dbl>  <dbl>
##  1 2022-03-08 06101 Sutter County CA         60.3        73          87.7  96971
##  2 2022-03-08 12009 Brevard Coun~ FL         64          72.9        88.4 601942
##  3 2022-03-08 19085 Harrison Cou~ IA         51.6        62.1        88.9  14049
##  4 2022-03-08 06069 San Benito C~ CA         66          75.6        83.3  62808
##  5 2022-03-08 19057 Des Moines C~ IA         51.1        61.9        83.4  38967
##  6 2022-03-08 05073 Lafayette Co~ AR         41.2        48.5        57.4   6624
##  7 2022-03-08 16021 Boundary Cou~ ID         34.8        42.8        63.6  12245
##  8 2022-03-08 20073 Greenwood Co~ KS         49          59.6        80.6   5982
##  9 2022-03-08 33005 Cheshire Cou~ NH         61.6        69.1        89.6  76085
## 10 2022-03-08 37159 Rowan County  NC         43.8        52.5        74.1 142088
## # ... with 1,480,100 more rows, and 2 more variables: popgte18 <dbl>,
## #   popgte65 <dbl>
…
## 
## Count of NA records by column
##           state            FIPS popgte65_minpop popgte65_maxpop    popgte65_nnA 
##               0               0               0               0               0 
##               n 
##               0 
## 
## Records where minimum and maximum population differ# A tibble: 0 x 5
## # ... with 5 variables: state <chr>, FIPS <chr>, age <chr>, minpop <dbl>,
## #   maxpop <dbl>

vaxFix65_20220309

## # A tibble: 1,417,042 x 10
##    date       FIPS  countyName    state vxcpoppct vxcgte18pct vxcgte65pct    pop
##    <date>     <chr> <chr>         <chr>     <dbl>       <dbl>       <dbl>  <dbl>
##  1 2022-03-08 06101 Sutter County CA         60.3        73          87.7  96971
##  2 2022-03-08 12009 Brevard Coun~ FL         64          72.9        88.4 601942
##  3 2022-03-08 19085 Harrison Cou~ IA         51.6        62.1        88.9  14049
##  4 2022-03-08 06069 San Benito C~ CA         66          75.6        83.3  62808
##  5 2022-03-08 19057 Des Moines C~ IA         51.1        61.9        83.4  38967
##  6 2022-03-08 05073 Lafayette Co~ AR         41.2        48.5        57.4   6624
##  7 2022-03-08 16021 Boundary Cou~ ID         34.8        42.8        63.6  12245
##  8 2022-03-08 20073 Greenwood Co~ KS         49          59.6        80.6   5982
##  9 2022-03-08 33005 Cheshire Cou~ NH         61.6        69.1        89.6  76085
## 10 2022-03-08 37159 Rowan County  NC         43.8        52.5        74.1 142088
## # ... with 1,417,032 more rows, and 2 more variables: popgte18 <dbl>,
## #   popgte65 <dbl>
…
corrList20220309

## [[1]]
## # A tibble: 3,142 x 10
##    fips  countyName     pop state vxcpoppct vxcgte18pct vxcgte65pct    cpm   dpm
##    <chr> <chr>        <dbl> <chr>     <dbl>       <dbl>       <dbl>  <dbl> <dbl>
##  1 42129 Westmorela~ 348899 PA         54.2        63.2        81.2 96676. 1238.
##  2 39109 Miami Coun~ 106987 OH         42.8        53          77.6 91619. 1318.
##  3 16045 Gem County   18112 ID         34.5        44.7        71   44611.  939.
##  4 05071 Johnson Co~  26578 AR         44.4        54.8        67.7 74761.  452.
##  5 48411 San Saba C~   6055 TX         32.7        40          54.4 38811.  991.
##  6 51710 Norfolk ci~ 242742 VA         48.2        56.7        79.4 69044.  470.
##  7 27007 Beltrami C~  47188 MN         52.5        64.7        91.4 94982.  805.
##  8 05067 Jackson Co~  16719 AR         34.4        41.2        66.9 98870.  658.
##  9 51735 Poquoson c~  12271 VA         43.5        52.8        69.7 79945.  652.
## 10 47047 Fayette Co~  41133 TN         49.2        57.9        76.3 97610. 1386.
## # ... with 3,132 more rows, and 1 more variable: type <chr>
## 
## [[2]]
## # A tibble: 3,142 x 10
##    fips  countyName     pop state vxcpoppct vxcgte18pct vxcgte65pct    cpm   dpm
##    <chr> <chr>        <dbl> <chr>     <dbl>       <dbl>       <dbl>  <dbl> <dbl>
##  1 51710 Norfolk ci~ 242742 VA         39.4        46.7        68.7 8.43e4  704.
##  2 01127 Walker Cou~  63521 AL         32.7        41          68.1 1.46e5 1810.
##  3 28153 Wayne Coun~  20183 MS         27.1        34.7        58.2 1.06e5 1288.
##  4 26045 Eaton Coun~ 110268 MI         47.4        56.5        77.4 1.41e5 1533.
##  5 48313 Madison Co~  14284 TX          0           0           0   1.00e5 1050.
##  6 39095 Lucas Coun~ 428348 OH         39.2        48.2        67.2 1.22e5 1158.
##  7 29153 Ozark Coun~   9174 MO         24.7        30          41   7.60e4 3052.
##  8 29071 Franklin C~ 103967 MO         44.5        55          81.4 9.62e4 1212.
##  9 21149 McLean Cou~   9207 KY         40.9        51.6        76.7 1.56e5 1629.
## 10 13233 Polk County  42613 GA          9.4        11.7         9.8 9.84e4 1877.
## # ... with 3,132 more rows, and 1 more variable: type <chr>
…
tempStateCompareList

## $dfState
## # A tibble: 12,388 x 6
##    date       state name       value value7 src  
##    <date>     <chr> <chr>      <dbl>  <dbl> <chr>
##  1 2020-01-01 TX    cases          0     NA state
##  2 2020-01-01 TX    deaths         0     NA state
##  3 2020-01-01 TX    new_cases      0     NA state
##  4 2020-01-01 TX    new_deaths     0     NA state
##  5 2020-01-02 TX    cases          0     NA state
##  6 2020-01-02 TX    deaths         0     NA state
##  7 2020-01-02 TX    new_cases      0     NA state
##  8 2020-01-02 TX    new_deaths     0     NA state
##  9 2020-01-03 TX    cases          0     NA state
## 10 2020-01-03 TX    deaths         0     NA state
## # ... with 12,378 more rows
## 
## $dfCounty
## # A tibble: 12,208 x 6
##    state date       name       value value7 src   
##    <chr> <date>     <chr>      <dbl>  <dbl> <chr> 
##  1 FL    2020-01-25 cases          0      0 county
##  2 FL    2020-01-25 deaths         0      0 county
##  3 FL    2020-01-25 new_cases      0      0 county
##  4 FL    2020-01-25 new_deaths     0      0 county
##  5 FL    2020-01-26 cases          0      0 county
##  6 FL    2020-01-26 deaths         0      0 county
##  7 FL    2020-01-26 new_cases      0      0 county
##  8 FL    2020-01-26 new_deaths     0      0 county
##  9 FL    2020-01-27 cases          0      0 county
## 10 FL    2020-01-27 deaths         0      0 county
## # ... with 12,198 more rows
…
tempStateCompareList

## $dfState
## # A tibble: 3,160 x 6
##    date       name       src   value value7 state     
##    <date>     <chr>      <chr> <dbl>  <dbl> <chr>     
##  1 2020-01-01 cases      state     0     NA Aggregated
##  2 2020-01-01 deaths     state     0     NA Aggregated
##  3 2020-01-01 new_cases  state     0     NA Aggregated
##  4 2020-01-01 new_deaths state     0     NA Aggregated
##  5 2020-01-02 cases      state     0     NA Aggregated
##  6 2020-01-02 deaths     state     0     NA Aggregated
##  7 2020-01-02 new_cases  state     0     NA Aggregated
##  8 2020-01-02 new_deaths state     0     NA Aggregated
##  9 2020-01-03 cases      state     0     NA Aggregated
## 10 2020-01-03 deaths     state     0     NA Aggregated
## # ... with 3,150 more rows
## 
## $dfCounty
## # A tibble: 3,052 x 6
##    date       name       src    value  value7 state     
##    <date>     <chr>      <chr>  <dbl>   <dbl> <chr>     
##  1 2020-01-25 cases      county   751 750.    Aggregated
##  2 2020-01-25 deaths     county     1   1     Aggregated
##  3 2020-01-25 new_cases  county    10 111.    Aggregated
##  4 2020-01-25 new_deaths county     0   0.143 Aggregated
##  5 2020-01-26 cases      county   759 758.    Aggregated
##  6 2020-01-26 deaths     county     1   1     Aggregated
##  7 2020-01-26 new_cases  county     8   8     Aggregated
##  8 2020-01-26 new_deaths county     0   0     Aggregated
##  9 2020-01-27 cases      county   769 766.    Aggregated
## 10 2020-01-27 deaths     county     1   1     Aggregated
## # ... with 3,042 more rows
