CDC Daily by State
…
The final CTP data are pulled, with cumulative data through 2021-03-07 calculated. Cumulative data through 2021-03-07 from the CDC file are also extracted:

# Read in existing data from CTP
ctp_hier6_210401 <- readFromRDS("ctp_hier6_210401")

# Totals through 2021-03-07 for CTP (final date of collection)
ctp_cum_210307 <- ctp_hier6_210401$dfFiltered %>%
    group_by(state) %>%
    summarize_if(is.numeric, sum, na.rm=TRUE) %>%
    pivot_longer(-c(state), names_to="metric") %>%
    mutate(modifier="ctp") %>%
    select(state, modifier, metric, value, everything())
ctp_cum_210307

## # A tibble: 204 x 4
##    state modifier metric   value
##    <chr> <chr>    <chr>    <dbl>
##  1 AK    ctp      cases    56886
##  2 AK    ctp      deaths     305
##  3 AK    ctp      hosp     17804
##  4 AK    ctp      tests  1731620
##  5 AL    ctp      cases   499819
##  6 AL    ctp      deaths   10148
##  7 AL    ctp      hosp    404951
##  8 AL    ctp      tests  2323788
##  9 AR    ctp      cases   324818
## 10 AR    ctp      deaths    5319
## # ... with 194 more rows
…
# Uses final tot-cases, final tot-deaths, cumsum new-cases, cumsum new-deaths
cdc_cum_210307 <- cdcAnalysis %>%
    filter(date <= as.Date("2021-03-07"), 
           metric %in% c("cases", "deaths"), 
           modifier %in% c("new", "tot"), 
           state %in% c(state.abb, "DC")
           ) %>%
    pivot_wider(c(state, date, metric), names_from="modifier", values_from="value") %>%
    group_by(state, metric) %>%
    summarize(new=sum(new, na.rm=TRUE), tot=last(tot, order_by=date), .groups="drop") %>%
    pivot_longer(-c(state, metric), names_to="modifier") %>%
    select(state, modifier, metric, value, everything())
cdc_cum_210307

## # A tibble: 204 x 4
##    state modifier metric  value
##    <chr> <chr>    <chr>   <dbl>
##  1 AK    new      cases   56886
##  2 AK    tot      cases   56886
##  3 AK    new      deaths    301
##  4 AK    tot      deaths    301
##  5 AL    new      cases  497705
##  6 AL    tot      cases  499819
##  7 AL    new      deaths  10148
##  8 AL    tot      deaths  10148
##  9 AR    new      cases  324818
## 10 AR    tot      cases  324818
## # ... with 194 more rows
…
