Coronavirus US - CDC
…
cdcRaw <- fileRead(paste0("./RInputFiles/Coronavirus/", cdcLoc), col_types="cccddcdcccc") %>%
    colRenamer(vecRename=remapVars)

cdcRaw

## # A tibble: 197,545 x 11
##    fullState weekEnding state  year  week age    deaths period  Type    Suppress
##    <chr>     <chr>      <chr> <dbl> <dbl> <chr>   <dbl> <chr>   <chr>   <chr>   
##  1 Alabama   01/10/2015 AL     2015     1 25-44~     67 2015-2~ Predic~ <NA>    
##  2 Alabama   01/17/2015 AL     2015     2 25-44~     49 2015-2~ Predic~ <NA>    
##  3 Alabama   01/24/2015 AL     2015     3 25-44~     55 2015-2~ Predic~ <NA>    
##  4 Alabama   01/31/2015 AL     2015     4 25-44~     59 2015-2~ Predic~ <NA>    
##  5 Alabama   02/07/2015 AL     2015     5 25-44~     47 2015-2~ Predic~ <NA>    
##  6 Alabama   02/14/2015 AL     2015     6 25-44~     59 2015-2~ Predic~ <NA>    
##  7 Alabama   02/21/2015 AL     2015     7 25-44~     41 2015-2~ Predic~ <NA>    
##  8 Alabama   02/28/2015 AL     2015     8 25-44~     47 2015-2~ Predic~ <NA>    
##  9 Alabama   03/07/2015 AL     2015     9 25-44~     59 2015-2~ Predic~ <NA>    
## 10 Alabama   03/14/2015 AL     2015    10 25-44~     57 2015-2~ Predic~ <NA>    
## # ... with 197,535 more rows, and 1 more variable: Note <chr>

cdcRaw %>% 
    group_by(state, Type) %>% 
    summarize(deaths=sum(deaths, na.rm=TRUE)) %>%
    arrange(-deaths)

## `summarise()` has grouped output by 'state'. You can override using the `.groups` argument.

## # A tibble: 108 x 3
## # Groups:   state [54]
##    state Type                   deaths
##    <chr> <chr>                   <dbl>
##  1 US    Predicted (weighted) 18787183
##  2 US    Unweighted           18736023
##  3 CA    Predicted (weighted)  1804503
##  4 CA    Unweighted            1802307
##  5 TX    Predicted (weighted)  1367691
##  6 FL    Predicted (weighted)  1367661
##  7 FL    Unweighted            1366098
##  8 TX    Unweighted            1363538
##  9 PA    Predicted (weighted)   898425
## 10 PA    Unweighted             897361
## # ... with 98 more rows
…
cdc_temp

## # A tibble: 91,537 x 12
##    fullState weekEnding state year   week age      period Type    Suppress     n
##    <chr>     <date>     <chr> <fct> <int> <fct>    <fct>  <chr>   <chr>    <int>
##  1 Alabama   2015-01-10 AL    2015      1 Under 2~ 2015-~ Predic~ <NA>         1
##  2 Alabama   2015-01-10 AL    2015      1 25-44 y~ 2015-~ Predic~ <NA>         1
##  3 Alabama   2015-01-10 AL    2015      1 45-64 y~ 2015-~ Predic~ <NA>         1
##  4 Alabama   2015-01-10 AL    2015      1 65-74 y~ 2015-~ Predic~ <NA>         1
##  5 Alabama   2015-01-10 AL    2015      1 75-84 y~ 2015-~ Predic~ <NA>         1
##  6 Alabama   2015-01-10 AL    2015      1 85 year~ 2015-~ Predic~ <NA>         1
##  7 Alabama   2015-01-17 AL    2015      2 Under 2~ 2015-~ Predic~ <NA>         1
##  8 Alabama   2015-01-17 AL    2015      2 25-44 y~ 2015-~ Predic~ <NA>         1
##  9 Alabama   2015-01-17 AL    2015      2 45-64 y~ 2015-~ Predic~ <NA>         1
## 10 Alabama   2015-01-17 AL    2015      2 65-74 y~ 2015-~ Predic~ <NA>         1
## # ... with 91,527 more rows, and 2 more variables: deaths <dbl>, Note <chr>
…
    list(deaths=dfWeekly, useClusters=lst[["useClusters"]])
    
}

# Get a state-level clustering file
cdc_daily_210528 <- readFromRDS("cdc_daily_210528")
clusterList_temp <- helperKeyStateClusterMetrics(cdc_daily_210528)

## 
## *** File has been checked for uniqueness by: cluster year week

clusterList_temp

## $deaths
## # A tibble: 512 x 6
##    cluster  year  week      pop tot_deaths new_deaths
##    <chr>   <dbl> <dbl>    <dbl>      <dbl>      <dbl>
##  1 3        2020     1  1415872         NA         NA
##  2 3        2020     2  1415872         NA         NA
##  3 3        2020     3  1415872         NA         NA
##  4 3        2020     4 16576414          0          0
##  5 3        2020     5 16576414          0          0
##  6 3        2020     6 16576414          0          0
##  7 3        2020     7 16576414          0          0
##  8 3        2020     8 16576414          0          0
##  9 3        2020     9 16576414          1          1
## 10 3        2020    10 16576414         16         15
## # ... with 502 more rows
## 
## $useClusters
## AK AL AR AZ CA CO CT DC DE FL GA HI IA ID IL IN KS KY LA MA MD ME MI MN MO MS 
##  4  9  9  9  6  4  8  5  5  6  9  3  7  4  7  7  7  6  9  8  5  3  5  4  4  9 
## MT NC ND NE NH NJ NM NV NY OH OK OR PA RI SC SD TN TX UT VA VT WA WI WV WY 
##  4  6  7  4  3  8  7  9  8  6  7  3  9  8  9  7  9  6  4  6  3  3  4  6  4
…
