Coronavirus US Data (as of 20-AUG-2020)
…
}

# Create the variables for cpm, dpm, cpm7, and dpm7
cvFilteredPerCapita <- cvFiltered %>%
    helperPerCapita(origVar="cases", newName="cpm") %>%
    helperPerCapita(origVar="deaths", newName="dpm") %>%
    group_by(state) %>%
    arrange(date) %>%
    helperRollingAgg(origVar="cpm", newName="cpm7") %>%
    helperRollingAgg(origVar="dpm", newName="dpm7") %>%
    ungroup()
cvFilteredPerCapita

## # A tibble: 8,659 x 8
##    date       state cases deaths   cpm   dpm    cpm7  dpm7
##    <date>     <chr> <dbl>  <dbl> <dbl> <dbl>   <dbl> <dbl>
##  1 2020-01-22 WA        0      0 0         0 NA         NA
##  2 2020-01-23 WA        0      0 0         0 NA         NA
##  3 2020-01-24 WA        0      0 0         0 NA         NA
##  4 2020-01-25 WA        0      0 0         0  0          0
##  5 2020-01-26 WA        0      0 0         0  0.0199     0
##  6 2020-01-27 WA        0      0 0         0  0.0199     0
##  7 2020-01-28 WA        0      0 0         0  0.0199     0
##  8 2020-01-29 WA        1      0 0.139     0  0.0398     0
##  9 2020-01-30 WA        0      0 0         0  0.0797     0
## 10 2020-01-31 WA        0      0 0         0  0.0996     0
## # ... with 8,649 more rows
…
    # Return the clustering object
    objCluster
    
}

# Test clusters that weight deaths heavily vs. cases and that weight shape more highly than total
testCluster <- clusterStates(cvFilteredPerCapita, 
                             minShape=3, 
                             ratioDeathvsCase = 5, 
                             ratioTotalvsShape = 0.5, 
                             minDeath=100, 
                             minCase=10000
                             )

## # A tibble: 51 x 15
##    state totalCases totalDeaths cases_3 deaths_3 cases_4 deaths_4 cases_5
##    <chr>      <dbl>       <dbl>   <dbl>    <dbl>   <dbl>    <dbl>   <dbl>
##  1 WY         0.246       0.220 0.0186    0       0.0742    0.597  0.0613
##  2 WV         0.202       0.342 0.00878   0.0271  0.0518    1.08   0.0484
##  3 WI         0.524       0.707 0.0217    0.0745  0.0887    1.40   0.172 
##  4 WA         0.396       0.963 0.113     0.707   0.110     1.48   0.0997
##  5 VT         0.102       0.352 0.0511    1.04    0.0893    2.88   0.0163
##  6 VA         0.544       1.10  0.0114    0.0556  0.133     1.08   0.262 
##  7 UT         0.665       0.483 0.0185    0.0656  0.0789    0.538  0.107 
##  8 TX         0.850       1.49  0.00580   0.0190  0.0441    0.343  0.0643
##  9 TN         0.875       0.856 0.0161    0.0773  0.0610    0.591  0.0882
## 10 SD         0.517       0.695 0.0101    0.0318  0.219     0.510  0.238 
## # ... with 41 more rows, and 7 more variables: deaths_5 <dbl>, cases_6 <dbl>,
## #   deaths_6 <dbl>, cases_7 <dbl>, deaths_7 <dbl>, cases_8 <dbl>,
## #   deaths_8 <dbl>
…
## # A tibble: 8,659 x 11
##    state cluster name      pop date       cases deaths   cpm   dpm   cpm7  dpm7
##    <chr> <fct>   <chr>   <dbl> <date>     <dbl>  <dbl> <dbl> <dbl>  <dbl> <dbl>
##  1 AK    1       Alaska 738432 2020-03-06     0      0  0        0 NA        NA
##  2 AK    1       Alaska 738432 2020-03-07     0      0  0        0 NA        NA
##  3 AK    1       Alaska 738432 2020-03-08     0      0  0        0 NA        NA
##  4 AK    1       Alaska 738432 2020-03-09     0      0  0        0  0         0
##  5 AK    1       Alaska 738432 2020-03-10     0      0  0        0  0.193     0
##  6 AK    1       Alaska 738432 2020-03-11     0      0  0        0  0.193     0
##  7 AK    1       Alaska 738432 2020-03-12     0      0  0        0  0.193     0
##  8 AK    1       Alaska 738432 2020-03-13     1      0  1.35     0  0.193     0
##  9 AK    1       Alaska 738432 2020-03-14     0      0  0        0  0.580     0
## 10 AK    1       Alaska 738432 2020-03-15     0      0  0        0  1.16      0
## # ... with 8,649 more rows
…
