COVID Tracking Project - Updated for 2021
…
    # Return file with only key variables kept
    df %>%
        select_at(vars(all_of(keepVars)))
    
}

The function is then tested, with totals by state compared against previous:

# Using the new defaults
pop_2019 <- getStateData()
pop_2019

## # A tibble: 51 x 3
##    state name                      pop
##    <chr> <chr>                   <dbl>
##  1 AL    Alabama               4903185
##  2 AK    Alaska                 731545
##  3 AZ    Arizona               7278717
##  4 AR    Arkansas              3017804
##  5 CA    California           39512223
##  6 CO    Colorado              5758736
##  7 CT    Connecticut           3565287
##  8 DE    Delaware               973764
##  9 DC    District of Columbia   705749
## 10 FL    Florida              21477737
## # ... with 41 more rows
…
