State Coronavirus Data
…
ne_casedeath

## # A tibble: 2,010 x 5
##    state date       name        vpm7     pop
##    <chr> <date>     <chr>      <dbl>   <dbl>
##  1 N NE  2020-03-04 CTP_cases     NA 1330608
##  2 N NE  2020-03-04 CTP_deaths    NA 1330608
##  3 N NE  2020-03-05 CTP_cases     NA 1330608
##  4 N NE  2020-03-05 CTP_deaths    NA 1330608
##  5 N NE  2020-03-06 CTP_cases     NA 1956650
##  6 N NE  2020-03-06 CTP_deaths    NA 1956650
##  7 N NE  2020-03-07 CTP_cases     NA 3285978
##  8 N NE  2020-03-07 CTP_deaths    NA 3285978
##  9 N NE  2020-03-08 CTP_cases     NA 3285978
## 10 N NE  2020-03-08 CTP_deaths    NA 3285978
## # ... with 2,000 more rows
…
so_casedeath

## # A tibble: 1,880 x 4
##    state date       name         vpm7
##    <chr> <date>     <chr>       <dbl>
##  1 AZ    2020-03-04 CTP_cases NA     
##  2 AZ    2020-03-05 CTP_cases NA     
##  3 AZ    2020-03-06 CTP_cases NA     
##  4 AZ    2020-03-07 CTP_cases  0.0837
##  5 AZ    2020-03-08 CTP_cases  0.146 
##  6 AZ    2020-03-09 CTP_cases  0.146 
##  7 AZ    2020-03-10 CTP_cases  0.126 
##  8 AZ    2020-03-11 CTP_cases  0.146 
##  9 AZ    2020-03-12 CTP_cases  0.146 
## 10 AZ    2020-03-13 CTP_cases  0.272 
## # ... with 1,870 more rows
…
