Data Camp Insights
…
brand_rep_spend <- tibble::tibble(spend=spendData)
brand_rep <- file001 %>%
    mutate(poorworkman = 6-poor_workman_r) %>%
    select(-poorworkman)
brand_rep

## # A tibble: 559 x 9
##    well_made consistent poor_workman_r higher_price lot_more go_up
##        <dbl>      <dbl>          <dbl>        <dbl>    <dbl> <dbl>
##  1         1          1              1            1        1     1
##  2         1          1              2            3        5     5
##  3         1          1              1            2        2     2
##  4         5          3              5            5        5     5
##  5         1          1              1            1        1     1
##  6         1          1              1            4        5     5
##  7         1          1              1            1        3     1
##  8         1          1              1            3        3     3
##  9         1          1              1            1        1     2
## 10         1          1              1            1        5     5
## # ... with 549 more rows, and 3 more variables: stands_out <dbl>,
## #   unique <dbl>, one_of_a_kind <dbl>

brand_rep_spend

## # A tibble: 559 x 1
##    spend
##    <dbl>
##  1  94.5
##  2 715  
##  3 146. 
##  4 772. 
##  5 134. 
##  6 350  
##  7  75.5
##  8 304. 
##  9 117  
## 10  81  
## # ... with 549 more rows
…
c_sat

## # A tibble: 350 x 10
##      CS1   CS2   CS3   CS4   CS5   CS6   CS7   CS8   CS9  CS10
##    <dbl> <dbl> <dbl> <dbl> <dbl> <dbl> <dbl> <dbl> <dbl> <dbl>
##  1     4     3     4     4     3     4     4     4     4     4
##  2     3     4     3     3     2     3     4     2     3     2
##  3     3     3     3     4     3     4     2     3     5     3
##  4     3     4     3     3     3     4     3     2     3     2
##  5     4     4     4     4     3     4     3     3     2     3
##  6     4     3     4     4     2     4     3     4     4     3
##  7     2     2     2     2     3     2     2     3     4     3
##  8     2     3     3     3     3     3     2     3     3     2
##  9     3     4     4     3     3     3     3     2     3     2
## 10     3     4     3     3     3     3     2     3     3     3
## # ... with 340 more rows

c_sat_recommend

## # A tibble: 350 x 1
##    Rec_1
##    <dbl>
##  1     4
##  2     3
##  3     3
##  4     3
##  5     4
##  6     3
##  7     2
##  8     3
##  9     3
## 10     3
## # ... with 340 more rows
…
# Descriptive statistics grouped by 'time'
# psych::describeBy(brand_rep_t1_t2, "time")

# Test retest: time == 1 versus time == 2 by id = "id"
# brand_rep_test_retest <- psych::testRetest(t1 = filter(brand_rep_t1_t2, time == 1), t2 = filter(brand_rep_t1_t2, time == 2), id = "id")

# brand_rep_test_retest$r12

brand_rep <- file001 %>%
    select(-one_of_a_kind)
brand_rep

## # A tibble: 559 x 8
##    well_made consistent poor_workman_r higher_price lot_more go_up
##        <dbl>      <dbl>          <dbl>        <dbl>    <dbl> <dbl>
##  1         1          1              1            1        1     1
##  2         1          1              2            3        5     5
##  3         1          1              1            2        2     2
##  4         5          3              5            5        5     5
##  5         1          1              1            1        1     1
##  6         1          1              1            4        5     5
##  7         1          1              1            1        3     1
##  8         1          1              1            3        3     3
##  9         1          1              1            1        1     2
## 10         1          1              1            1        5     5
## # ... with 549 more rows, and 2 more variables: stands_out <dbl>,
## #   unique <dbl>
…
## # A tibble: 3 x 9
##   type  longestShell diameter height wholeWeight shuckedWeight
##   <fct>        <dbl>    <dbl>  <dbl>       <dbl>         <dbl>
## 1 M            0.6      0.475  0.205        1.18         0.526
## 2 F            0.625    0.485  0.15         1.09         0.531
## 3 M            0.71     0.555  0.195        1.95         0.946
## # ... with 3 more variables: visceraWeight <dbl>, shellWeight <dbl>,
## #   rings <int>

# Run arrange function from dplyr to sort the data by rings
arrange(abalone, rings)

## # A tibble: 4,177 x 9
##    type  longestShell diameter height wholeWeight shuckedWeight
##    <fct>        <dbl>    <dbl>  <dbl>       <dbl>         <dbl>
##  1 I            0.075    0.055  0.01       0.002         0.001 
##  2 I            0.15     0.1    0.025      0.015         0.0045
##  3 I            0.13     0.1    0.03       0.013         0.0045
##  4 I            0.11     0.09   0.03       0.008         0.0025
##  5 I            0.165    0.12   0.03       0.0215        0.007 
##  6 M            0.21     0.15   0.05       0.0385        0.0155
##  7 M            0.155    0.11   0.04       0.0155        0.0065
##  8 I            0.16     0.11   0.025      0.018         0.0065
##  9 I            0.24     0.175  0.065      0.0665        0.031 
## 10 I            0.195    0.15   0.045      0.0375        0.018 
## # ... with 4,167 more rows, and 3 more variables: visceraWeight <dbl>,
## #   shellWeight <dbl>, rings <int>

# Rewrite the line of code above using the %>% notation
abalone %>% 
    arrange(rings)

## # A tibble: 4,177 x 9
##    type  longestShell diameter height wholeWeight shuckedWeight
##    <fct>        <dbl>    <dbl>  <dbl>       <dbl>         <dbl>
##  1 I            0.075    0.055  0.01       0.002         0.001 
##  2 I            0.15     0.1    0.025      0.015         0.0045
##  3 I            0.13     0.1    0.03       0.013         0.0045
##  4 I            0.11     0.09   0.03       0.008         0.0025
##  5 I            0.165    0.12   0.03       0.0215        0.007 
##  6 M            0.21     0.15   0.05       0.0385        0.0155
##  7 M            0.155    0.11   0.04       0.0155        0.0065
##  8 I            0.16     0.11   0.025      0.018         0.0065
##  9 I            0.24     0.175  0.065      0.0665        0.031 
## 10 I            0.195    0.15   0.045      0.0375        0.018 
## # ... with 4,167 more rows, and 3 more variables: visceraWeight <dbl>,
## #   shellWeight <dbl>, rings <int>
…
