Data Camp Insights
…
## # A tibble: 3 x 2
##   department  avg_engagement
##   <chr>                <dbl>
## 1 Sales                 2.81
## 2 Engineering           3.15
## 3 Finance               3.24

# Create the disengaged variable and assign the result to survey
survey_disengaged <- survey %>% 
  mutate(disengaged = ifelse(engagement <= 2, 1, 0)) 

survey_disengaged

## # A tibble: 1,470 x 6
##    employee_id department  engagement salary vacation_days_tak~ disengaged
##          <int> <chr>            <int>  <dbl>              <int>      <dbl>
##  1           1 Sales                3 103264                  7       0   
##  2           2 Engineering          3  80709                 12       0   
##  3           4 Engineering          3  60737                 12       0   
##  4           5 Engineering          3  99116                  7       0   
##  5           7 Engineering          3  51022                 18       0   
##  6           8 Engineering          3  98400                  9       0   
##  7          10 Engineering          3  57106                 18       0   
##  8          11 Engineering          1  55065                  4       1.00
##  9          12 Engineering          4  77158                 12       0   
## 10          13 Engineering          2  48365                 14       1.00
## # ... with 1,460 more rows
…
