Data Camp Insights (Data Manipulation)
…
# Group by year and country: by_year_country
by_year_country <- votes_processed %>%
  group_by(year, country) %>%
  summarize(total = n(),
            percent_yes = mean(vote == 1)
            )

# Print by_year_country
by_year_country

## Source: local data frame [4,717 x 4]
## Groups: year [?]
## 
##     year                          country total percent_yes
##    <dbl>                            <chr> <int>       <dbl>
## 1   1947                      Afghanistan    34   0.3823529
## 2   1947                        Argentina    38   0.5789474
## 3   1947                        Australia    38   0.5526316
## 4   1947                          Belarus    38   0.5000000
## 5   1947                          Belgium    38   0.6052632
## 6   1947 Bolivia (Plurinational State of)    37   0.5945946
## 7   1947                           Brazil    38   0.6578947
## 8   1947                           Canada    38   0.6052632
## 9   1947                            Chile    38   0.6578947
## 10  1947                         Colombia    35   0.5428571
## # ... with 4,707 more rows
…
Can filter on just the slop term (term == year)

Can further filter on p-value such as (p.adjust(p.value) <= 0.05)

Example code includes:

# Percentage of yes votes from the US by year: US_by_year
US_by_year <- by_year_country %>%
  filter(country == "United States of America")

# Print the US_by_year data
US_by_year

## Source: local data frame [34 x 4]
## Groups: year [34]
## 
##     year                  country total percent_yes
##    <dbl>                    <chr> <int>       <dbl>
## 1   1947 United States of America    38   0.7105263
## 2   1949 United States of America    64   0.2812500
## 3   1951 United States of America    25   0.4000000
## 4   1953 United States of America    26   0.5000000
## 5   1955 United States of America    37   0.6216216
## 6   1957 United States of America    34   0.6470588
## 7   1959 United States of America    54   0.4259259
## 8   1961 United States of America    75   0.5066667
## 9   1963 United States of America    32   0.5000000
## 10  1965 United States of America    41   0.3658537
## # ... with 24 more rows
…
