Data Camp Insights
…
# Import "cran-logs_2015-04-17.csv" with read_csv()
logs <- read_csv("./RInputFiles/cran-logs_2015-04-17.csv")

## Parsed with column specification:
## cols(
##   datetime = col_datetime(format = ""),
##   r_version = col_character(),
##   country = col_character()
## )

# Print logs
logs

## # A tibble: 100,000 x 3
##    datetime            r_version country
##    <dttm>              <chr>     <chr>  
##  1 2015-04-16 22:40:19 3.1.3     CO     
##  2 2015-04-16 09:11:04 3.1.3     GB     
##  3 2015-04-16 17:12:37 3.1.3     DE     
##  4 2015-04-18 12:34:43 3.2.0     GB     
##  5 2015-04-16 04:49:18 3.1.3     PE     
##  6 2015-04-16 06:40:44 3.1.3     TW     
##  7 2015-04-16 00:21:36 3.1.3     US     
##  8 2015-04-16 10:27:23 3.1.3     US     
##  9 2015-04-16 01:59:43 3.1.3     SG     
## 10 2015-04-18 15:41:32 3.2.0     CA     
## # ... with 99,990 more rows

# Store the release time as a POSIXct object
release_time <- as.POSIXct("2015-04-16 07:13:33", tz = "UTC")

# When is the first download of 3.2.0?
logs %>% 
  filter(r_version == "3.2.0")

## # A tibble: 35,928 x 3
##    datetime            r_version country
##    <dttm>              <chr>     <chr>  
##  1 2015-04-18 12:34:43 3.2.0     GB     
##  2 2015-04-18 15:41:32 3.2.0     CA     
##  3 2015-04-18 14:58:41 3.2.0     IE     
##  4 2015-04-18 16:44:45 3.2.0     US     
##  5 2015-04-18 04:34:35 3.2.0     US     
##  6 2015-04-18 22:29:45 3.2.0     CH     
##  7 2015-04-17 16:21:06 3.2.0     US     
##  8 2015-04-18 20:34:57 3.2.0     AT     
##  9 2015-04-17 18:23:19 3.2.0     US     
## 10 2015-04-18 03:00:31 3.2.0     US     
## # ... with 35,918 more rows
…
## Parsed with column specification:
## cols(
##   date = col_character(),
##   max_temp = col_integer(),
##   min_temp = col_integer(),
##   mean_temp = col_integer(),
##   mean_rh = col_integer(),
##   events = col_character(),
##   cloud_cover = col_integer()
## )

# Print akl_daily_raw
akl_daily_raw

## # A tibble: 3,661 x 7
##    date      max_temp min_temp mean_temp mean_rh events cloud_cover
##    <chr>        <int>    <int>     <int>   <int> <chr>        <int>
##  1 2007-9-1        60       51        56      75 <NA>             4
##  2 2007-9-2        60       53        56      82 Rain             4
##  3 2007-9-3        57       51        54      78 <NA>             6
##  4 2007-9-4        64       50        57      80 Rain             6
##  5 2007-9-5        53       48        50      90 Rain             7
##  6 2007-9-6        57       42        50      69 <NA>             1
##  7 2007-9-7        59       41        50      77 <NA>             4
##  8 2007-9-8        59       46        52      80 <NA>             5
##  9 2007-9-9        55       50        52      88 Rain             7
## 10 2007-9-10       59       50        54      82 Rain             4
## # ... with 3,651 more rows

# Parse date 
akl_daily <- akl_daily_raw %>%
  mutate(date = ymd(date))

# Print akl_daily
akl_daily

## # A tibble: 3,661 x 7
##    date       max_temp min_temp mean_temp mean_rh events cloud_cover
##    <date>        <int>    <int>     <int>   <int> <chr>        <int>
##  1 2007-09-01       60       51        56      75 <NA>             4
##  2 2007-09-02       60       53        56      82 Rain             4
##  3 2007-09-03       57       51        54      78 <NA>             6
##  4 2007-09-04       64       50        57      80 Rain             6
##  5 2007-09-05       53       48        50      90 Rain             7
##  6 2007-09-06       57       42        50      69 <NA>             1
##  7 2007-09-07       59       41        50      77 <NA>             4
##  8 2007-09-08       59       46        52      80 <NA>             5
##  9 2007-09-09       55       50        52      88 Rain             7
## 10 2007-09-10       59       50        54      82 Rain             4
## # ... with 3,651 more rows
…
# Print akl_hourly_raw
akl_hourly_raw

## # A tibble: 17,454 x 10
##     year month  mday time   temperature weather conditions events humidity
##    <int> <int> <int> <time>       <dbl> <chr>   <chr>      <chr>     <int>
##  1  2016     1     1 00:00         68.0 Clear   Clear      <NA>         68
##  2  2016     1     1 00:30         68.0 Clear   Clear      <NA>         68
##  3  2016     1     1 01:00         68.0 Clear   Clear      <NA>         73
##  4  2016     1     1 01:30         68.0 Clear   Clear      <NA>         68
##  5  2016     1     1 02:00         68.0 Clear   Clear      <NA>         68
##  6  2016     1     1 02:30         68.0 Clear   Clear      <NA>         68
##  7  2016     1     1 03:00         68.0 Clear   Clear      <NA>         68
##  8  2016     1     1 03:30         68.0 Cloudy  Partly Cl~ <NA>         68
##  9  2016     1     1 04:00         68.0 Cloudy  Scattered~ <NA>         68
## 10  2016     1     1 04:30         66.2 Cloudy  Partly Cl~ <NA>         73
## # ... with 17,444 more rows, and 1 more variable: date_utc <dttm>
# Use make_date() to combine year, month and mday 
akl_hourly  <- akl_hourly_raw  %>% 
  mutate(date = make_date(year = year, month = month, day = mday))

# Parse datetime_string 
akl_hourly <- akl_hourly  %>% 
  mutate(
    datetime_string = paste(date, time, sep = "T"),
    datetime = ymd_hms(datetime_string)
  )

# Print date, time and datetime columns of akl_hourly
akl_hourly %>% select(date, time, datetime)

## # A tibble: 17,454 x 3
##    date       time   datetime           
##    <date>     <time> <dttm>             
##  1 2016-01-01 00:00  2016-01-01 00:00:00
##  2 2016-01-01 00:30  2016-01-01 00:30:00
##  3 2016-01-01 01:00  2016-01-01 01:00:00
##  4 2016-01-01 01:30  2016-01-01 01:30:00
##  5 2016-01-01 02:00  2016-01-01 02:00:00
##  6 2016-01-01 02:30  2016-01-01 02:30:00
##  7 2016-01-01 03:00  2016-01-01 03:00:00
##  8 2016-01-01 03:30  2016-01-01 03:30:00
##  9 2016-01-01 04:00  2016-01-01 04:00:00
## 10 2016-01-01 04:30  2016-01-01 04:30:00
## # ... with 17,444 more rows
…
## Time difference of 7.224444 hours

# Create day_hour, datetime rounded down to hour
akl_hourly <- akl_hourly %>%
  mutate(
    day_hour = floor_date(datetime, unit = "hour")
  )

# Count observations per hour  
akl_hourly %>% 
  count(day_hour) 

## # A tibble: 8,770 x 2
##    day_hour                n
##    <dttm>              <int>
##  1 2016-01-01 00:00:00     2
##  2 2016-01-01 01:00:00     2
##  3 2016-01-01 02:00:00     2
##  4 2016-01-01 03:00:00     2
##  5 2016-01-01 04:00:00     2
##  6 2016-01-01 05:00:00     2
##  7 2016-01-01 06:00:00     2
##  8 2016-01-01 07:00:00     2
##  9 2016-01-01 08:00:00     2
## 10 2016-01-01 09:00:00     2
## # ... with 8,760 more rows

# Find day_hours with n != 2  
akl_hourly %>% 
  count(day_hour) %>%
  filter(n != 2) %>% 
  arrange(desc(n))

## # A tibble: 92 x 2
##    day_hour                n
##    <dttm>              <int>
##  1 2016-04-03 02:00:00     4
##  2 2016-09-25 00:00:00     4
##  3 2016-06-26 09:00:00     1
##  4 2016-09-01 23:00:00     1
##  5 2016-09-02 01:00:00     1
##  6 2016-09-04 11:00:00     1
##  7 2016-09-04 16:00:00     1
##  8 2016-09-04 17:00:00     1
##  9 2016-09-05 00:00:00     1
## 10 2016-09-05 15:00:00     1
## # ... with 82 more rows
…
monarchs <- tibble::tibble(name=mNames, dominion=mDominion, 
                           from=ymd(sapply(str_split(mFrom, "-"), FUN=padMDate)), 
                           to=ymd(sapply(str_split(mTo, "-"), FUN=padMDate))
                           )

# Print monarchs
monarchs

## # A tibble: 131 x 4
##    name                            dominion       from       to        
##    <chr>                           <chr>          <date>     <date>    
##  1 Elizabeth II                    United Kingdom 1952-02-06 2018-02-08
##  2 Victoria                        United Kingdom 1837-06-20 1901-01-22
##  3 George V                        United Kingdom 1910-05-06 1936-01-20
##  4 George III                      United Kingdom 1801-01-01 1820-01-29
##  5 George VI                       United Kingdom 1936-12-11 1952-02-06
##  6 George IV                       United Kingdom 1820-01-29 1830-06-26
##  7 Edward VII                      United Kingdom 1901-01-22 1910-05-06
##  8 William IV                      United Kingdom 1830-06-26 1837-06-20
##  9 Edward VIII                     United Kingdom 1936-01-20 1936-12-11
## 10 George III(also United Kingdom) Great Britain  1760-10-25 1801-01-01
## # ... with 121 more rows

# Create an interval for reign
monarchs <- monarchs %>%
  mutate(reign = from %--% to) 

# Find the length of reign, and arrange
monarchs %>%
  mutate(length = int_length(reign)) %>% 
  arrange(desc(length)) %>%
  select(name, length, dominion)

## # A tibble: 131 x 3
##    name                   length dominion      
##    <chr>                   <dbl> <chr>         
##  1 Elizabeth II       2083017600 United Kingdom
##  2 Victoria           2006726400 United Kingdom
##  3 James VI           1820102400 Scotland      
##  4 Gruffudd ap Cynan  1767139200 Gwynedd       
##  5 Edward III         1590624000 England       
##  6 William I          1545868800 Scotland      
##  7 Llywelyn the Great 1428796800 Gwynedd       
##  8 Elizabeth I        1399507200 England       
##  9 Constantine II     1356912000 Scotland      
## 10 David II           1316304000 Scotland      
## # ... with 121 more rows
…
