VAERS Exploration
…
# Pull outlier VAERS_ID (roughly 1% of data has very many vaccines or very many symptoms)
vaersOutlier2020 <- vaersOverlap2020 %>%
    filter(nVax > 4 | nSymptoms > 4)
vaersOutlier2020

## # A tibble: 423 x 4
##    VAERS_ID nData nSymptoms  nVax
##    <chr>    <dbl>     <int> <int>
##  1 0855033      1         5     4
##  2 0855229      1         1     8
##  3 0855473      1         1     6
##  4 0855509      1         8     1
##  5 0855674      1         1     5
##  6 0855704      1         1     5
##  7 0855841      1         6     1
##  8 0855975      1         5     1
##  9 0856025      1         2     5
## 10 0856029      1         5     1
## # ... with 413 more rows
…
vaersVax2020 %>%
    right_join(vaersCheck, by="VAERS_ID")

## # A tibble: 21 x 11
##    VAERS_ID VAX_TYPE  VAX_MANU        VAX_LOT VAX_DOSE_SERIES VAX_ROUTE VAX_SITE
##    <chr>    <chr>     <chr>           <chr>   <chr>           <chr>     <chr>   
##  1 0856652  HEPA      "MERCK & CO. I~ S020241 1               IM        LL      
##  2 0856652  HIBV      "MERCK & CO. I~ S016869 3               IM        LL      
##  3 0856652  MMR       "MERCK & CO. I~ S006647 1               SC        RL      
##  4 0856652  PNC13     "PFIZER\\WYETH" AR1657  4               IM        RL      
##  5 0856652  VARCEL    "MERCK & CO. I~ S021924 1               SC        LL      
##  6 0870057  VARZOS    "GLAXOSMITHKLI~ <NA>    UNK             OT        <NA>    
##  7 0872237  DTAPHEPB~ "GLAXOSMITHKLI~ AC21B3~ UNK             SYR       RA      
##  8 0872237  FLU3      "SANOFI PASTEU~ U4711da UNK             SYR       LL      
##  9 0872237  HIBV      "SANOFI PASTEU~ uh769ab UNK             SYR       LL      
## 10 0872237  HIBV      "SANOFI PASTEU~ AHAVB5~ UNK             SYR       RA      
## # ... with 11 more rows, and 4 more variables: VAX_NAME <chr>, nData <dbl>,
## #   nSymptoms <int>, nVax <int>
…
## 
## *** File has been checked for uniqueness by: VAERS_ID symptom

vaersSymptomsPivot2020

## # A tibble: 178,542 x 4
##    VAERS_ID number symptom                          code 
##    <chr>     <int> <chr>                            <chr>
##  1 0855017       1 Arthralgia                       22.10
##  2 0855017       2 Chills                           22.10
##  3 0855017       3 Injection site pain              22.10
##  4 0855017       4 Pyrexia                          22.10
##  5 0855018       1 Chills                           22.10
##  6 0855018       2 Fatigue                          22.10
##  7 0855018       3 Hypertension                     22.10
##  8 0855018       4 Hypoaesthesia                    22.10
##  9 0855018       5 Injected limb mobility decreased 22.10
## 10 0855018       6 Muscular weakness                22.10
## # ... with 178,532 more rows

colSums(is.na(vaersSymptomsPivot2020))

## VAERS_ID   number  symptom     code 
##        0        0        0        0

vaersSymptomsPivot2020 %>% count(symptom, sort=TRUE)

## # A tibble: 4,055 x 2
##    symptom                     n
##    <chr>                   <int>
##  1 Pyrexia                  6674
##  2 Headache                 6269
##  3 Pain                     6152
##  4 Injection site pain      5270
##  5 Chills                   5146
##  6 Pain in extremity        4850
##  7 Fatigue                  4622
##  8 No adverse event         4285
##  9 Nausea                   3982
## 10 Injection site erythema  3808
## # ... with 4,045 more rows
…
## *** File has been checked for uniqueness by: VAERS_ID symptom 
## 
## Rows: 178,542
## Columns: 4
## $ VAERS_ID <chr> "0855017", "0855017", "0855017", "0855017", "0855018", "08550~
## $ number   <int> 1, 2, 3, 4, 1, 2, 3, 4, 5, 6, 7, 8, 9, 10, 1, 2, 3, 1, 2, 3, ~
## $ symptom  <chr> "Arthralgia", "Chills", "Injection site pain", "Pyrexia", "Ch~
## $ code     <chr> "22.10", "22.10", "22.10", "22.10", "22.10", "22.10", "22.10"~
## 
## NA record counts in pivoted symptoms data:
## VAERS_ID   number  symptom     code 
##        0        0        0        0 
## 
## Counts of top symptoms, codes, and number of symptoms in pivoted symptoms data:
## # A tibble: 4,055 x 2
##    symptom                     n
##    <chr>                   <int>
##  1 Pyrexia                  6674
##  2 Headache                 6269
##  3 Pain                     6152
##  4 Injection site pain      5270
##  5 Chills                   5146
##  6 Pain in extremity        4850
##  7 Fatigue                  4622
##  8 No adverse event         4285
##  9 Nausea                   3982
## 10 Injection site erythema  3808
## # ... with 4,045 more rows
## # A tibble: 4 x 2
##   code       n
##   <chr>  <int>
## 1 23.10 102114
## 2 23.00  51837
## 3 24.00  12467
## 4 22.10  12124
## # A tibble: 117 x 2
##    number     n
##     <int> <int>
##  1      1 49651
##  2      2 38524
##  3      3 26575
##  4      4 18854
##  5      5 12970
##  6      6  8797
##  7      7  6006
##  8      8  4184
##  9      9  2934
## 10     10  2081
## # ... with 107 more rows
## 
## *** File has been checked for uniqueness by: VAERS_ID VAX_TYPE VAX_MANU VAX_LOT VAX_DOSE_SERIES VAX_ROUTE VAX_SITE VAX_NAME 
## 
## Rows: 59,430
## Columns: 9
## $ VAERS_ID        <chr> "0855017", "0855018", "0855019", "0855020", "0855021",~
## $ VAX_TYPE        <chr> "VARZOS", "UNK", "VARZOS", "VARZOS", "VARZOS", "VARZOS~
## $ VAX_MANU        <chr> "GLAXOSMITHKLINE BIOLOGICALS", "UNKNOWN MANUFACTURER",~
…
## # A tibble: 216 x 5
##    month   SEX   name     nEvent     n
##    <chr>   <chr> <chr>     <dbl> <int>
##  1 2020-01 F     DIED          6  1302
##  2 2020-01 F     DISABLE       9  1302
##  3 2020-01 F     ER_VISIT     14  1302
##  4 2020-01 F     HOSPITAL     25  1302
##  5 2020-01 F     L_THREAT      3  1302
##  6 2020-01 F     REPORT     1302  1302
##  7 2020-01 M     DIED          7   710
##  8 2020-01 M     DISABLE       4   710
##  9 2020-01 M     ER_VISIT      2   710
## 10 2020-01 M     HOSPITAL     29   710
## # ... with 206 more rows
…
## *** File has been checked for uniqueness by: VAERS_ID symptom 
## 
## Rows: 181,163
## Columns: 4
## $ VAERS_ID <chr> "0794156", "0794156", "0794157", "0794157", "0794157", "07941~
## $ number   <int> 1, 2, 1, 2, 3, 4, 5, 6, 7, 8, 9, 10, 1, 2, 3, 4, 5, 1, 2, 3, ~
## $ symptom  <chr> "Injected limb mobility decreased", "Injection site joint pai~
## $ code     <chr> "21.10", "21.10", "21.10", "21.10", "21.10", "21.10", "21.10"~
## 
## NA record counts in pivoted symptoms data:
## VAERS_ID   number  symptom     code 
##        0        0        0        0 
## 
## Counts of top symptoms, codes, and number of symptoms in pivoted symptoms data:
## # A tibble: 4,114 x 2
##    symptom                     n
##    <chr>                   <int>
##  1 Pyrexia                  6988
##  2 No adverse event         6185
##  3 Injection site pain      5823
##  4 Pain                     5797
##  5 Injection site erythema  5463
##  6 Pain in extremity        4978
##  7 Headache                 4875
##  8 Chills                   4514
##  9 Injection site swelling  4171
## 10 Fatigue                  3877
## # ... with 4,104 more rows
## # A tibble: 5 x 2
##   code      n
##   <chr> <int>
## 1 22.00 92277
## 2 22.10 78664
## 3 21.10 10202
## 4 23.00    16
## 5 23.10     4
## # A tibble: 107 x 2
##    number     n
##     <int> <int>
##  1      1 48437
##  2      2 39502
##  3      3 26542
##  4      4 18974
##  5      5 13251
##  6      6  9057
##  7      7  6267
##  8      8  4377
##  9      9  3047
## 10     10  2137
## # ... with 97 more rows
…
## # A tibble: 216 x 5
##    month   SEX   name     nEvent     n
##    <chr>   <chr> <chr>     <dbl> <int>
##  1 2019-01 F     DIED          5  1403
##  2 2019-01 F     DISABLE      16  1403
##  3 2019-01 F     ER_VISIT     13  1403
##  4 2019-01 F     HOSPITAL     32  1403
##  5 2019-01 F     L_THREAT      8  1403
##  6 2019-01 F     REPORT     1403  1403
##  7 2019-01 M     DIED          5   711
##  8 2019-01 M     DISABLE      11   711
##  9 2019-01 M     ER_VISIT     10   711
## 10 2019-01 M     HOSPITAL     35   711
## # ... with 206 more rows
