Integrate Download and EDA Functions
…
allData <- combineProcessedFiles(integrateNames)
modData <- makePredomDir(allData)

## Warning in ifelse(is.na(WindDir) | WindDir %in% c("000", "VRB"), -1,
## as.numeric(WindDir)): NAs introduced by coercion

# Show counts by sourceName
modData %>%
    count(source, sourceName)

## # A tibble: 27 x 3
##    source    sourceName                 n
##    <chr>     <chr>                  <int>
##  1 katl_2016 Atlanta, GA (2016)      8820
##  2 kbos_2016 Boston, MA (2016)       8711
##  3 kdca_2016 Washington, DC (2016)   8757
##  4 kden_2016 Denver, CO (2016)       8820
##  5 kdfw_2016 Dallas, TX (2016)       8820
##  6 klas_2014 Las Vegas, NV (2014)    8787
##  7 klas_2018 Las Vegas, NV (2018)    8794
##  8 klas_2019 Las Vegas, NV (2019)    8804
##  9 klax_2016 Los Angeles, CA (2016)  8822
## 10 kmia_2016 Miami, FL (2016)        8822
## # ... with 17 more rows
…
# Create the modified cloud data object (add CLR level at -100 if no clouds)
modCData <- cloudsLevel0(cData, maxHeight=12000, byVars=c("source", "sourceName", "dtime")) %>%
    mutate(type=factor(type, levels=c("VV", "OVC", "BKN", "SCT", "FEW", "CLR")))
modCData

## # A tibble: 469,960 x 6
##    source    sourceName         dtime               level height type 
##    <chr>     <chr>              <dttm>              <dbl>  <dbl> <fct>
##  1 katl_2016 Atlanta, GA (2016) 2015-12-31 00:52:00     0   -100 CLR  
##  2 katl_2016 Atlanta, GA (2016) 2015-12-31 00:52:00     1    300 FEW  
##  3 katl_2016 Atlanta, GA (2016) 2015-12-31 00:52:00     2   4000 BKN  
##  4 katl_2016 Atlanta, GA (2016) 2015-12-31 00:52:00     3   9000 OVC  
##  5 katl_2016 Atlanta, GA (2016) 2015-12-31 01:52:00     0   -100 CLR  
##  6 katl_2016 Atlanta, GA (2016) 2015-12-31 01:52:00     1    300 FEW  
##  7 katl_2016 Atlanta, GA (2016) 2015-12-31 01:52:00     2   3800 BKN  
##  8 katl_2016 Atlanta, GA (2016) 2015-12-31 01:52:00     3   9000 OVC  
##  9 katl_2016 Atlanta, GA (2016) 2015-12-31 02:52:00     0   -100 CLR  
## 10 katl_2016 Atlanta, GA (2016) 2015-12-31 02:52:00     1    300 FEW  
## # ... with 469,950 more rows
…
