Weather Exploratory Data Analysis
…
##  [1] "kdtw_2016" "kewr_2016" "kgrb_2016" "kgrr_2016" "kiah_2016" "kind_2016"
##  [7] "klas_2015" "klas_2016" "klas_2017" "klnk_2016" "kmke_2016" "kmsn_2016"
## [13] "kmsp_2016" "kmsy_2015" "kmsy_2016" "kmsy_2017" "kord_2015" "kord_2016"
## [19] "kord_2017" "ksan_2015" "ksan_2016" "ksan_2017" "ktvc_2016"

# Extracted high-low temperatures
all_hilo <- map_dfr(.x=fileNames, .f=getDailyHighLow, .id="source") %>%
    mutate(source=fileNames[as.integer(source)], locale=cityNameMapper[source]) %>%
    select(source, locale, everything())
all_hilo

## # A tibble: 202,317 x 6
##    source   locale      dtime               tempData             tempFHi tempFLo
##    <chr>    <chr>       <dttm>              <chr>                  <dbl>   <dbl>
##  1 kdtw_20~ Detroit, M~ 2015-12-31 00:53:00 <NA>                      NA      NA
##  2 kdtw_20~ Detroit, M~ 2015-12-31 01:53:00 <NA>                      NA      NA
##  3 kdtw_20~ Detroit, M~ 2015-12-31 02:53:00 <NA>                      NA      NA
##  4 kdtw_20~ Detroit, M~ 2015-12-31 03:53:00 <NA>                      NA      NA
##  5 kdtw_20~ Detroit, M~ 2015-12-31 04:53:00 RMK AO2 SLP224 T001~      37      32
##  6 kdtw_20~ Detroit, M~ 2015-12-31 05:53:00 <NA>                      NA      NA
##  7 kdtw_20~ Detroit, M~ 2015-12-31 06:53:00 <NA>                      NA      NA
##  8 kdtw_20~ Detroit, M~ 2015-12-31 07:53:00 <NA>                      NA      NA
##  9 kdtw_20~ Detroit, M~ 2015-12-31 08:53:00 <NA>                      NA      NA
## 10 kdtw_20~ Detroit, M~ 2015-12-31 09:53:00 <NA>                      NA      NA
## # ... with 202,307 more rows
…
}

The function can be run for all the data:

# Extracted precipitation amounts
all_pin <- map_dfr(.x=fileNames, .f=getPrecipAmount, .id="source") %>%
    mutate(source=fileNames[as.integer(source)], locale=cityNameMapper[source]) %>%
    select(source, locale, everything())
all_pin

## # A tibble: 202,317 x 6
##    source    locale             dtime               p1Inches p36Inches p24Inches
##    <chr>     <chr>              <dttm>                 <dbl>     <dbl>     <dbl>
##  1 kdtw_2016 Detroit, MI (2016) 2015-12-31 00:53:00       NA        NA        NA
##  2 kdtw_2016 Detroit, MI (2016) 2015-12-31 01:53:00       NA        NA        NA
##  3 kdtw_2016 Detroit, MI (2016) 2015-12-31 02:53:00       NA        NA        NA
##  4 kdtw_2016 Detroit, MI (2016) 2015-12-31 03:53:00       NA        NA        NA
##  5 kdtw_2016 Detroit, MI (2016) 2015-12-31 04:53:00       NA        NA        NA
##  6 kdtw_2016 Detroit, MI (2016) 2015-12-31 05:53:00       NA        NA        NA
##  7 kdtw_2016 Detroit, MI (2016) 2015-12-31 06:53:00       NA        NA        NA
##  8 kdtw_2016 Detroit, MI (2016) 2015-12-31 07:53:00       NA        NA        NA
##  9 kdtw_2016 Detroit, MI (2016) 2015-12-31 08:53:00       NA        NA        NA
## 10 kdtw_2016 Detroit, MI (2016) 2015-12-31 09:53:00       NA        NA        NA
## # ... with 202,307 more rows
…
pIssues %>%
    count(mism)

## # A tibble: 2 x 2
##   mism      n
##   <lgl> <int>
## 1 FALSE   226
## 2 TRUE     50

pIssues %>% 
    filter(mism) %>% 
    arrange(-absDelta)

## # A tibble: 50 x 7
##    locale                 month p1Inches p24Inches absDelta pctDelta mism 
##    <chr>                  <dbl>    <dbl>     <dbl>    <dbl>    <dbl> <lgl>
##  1 Houston, TX (2016)         4    12.1       3.28     8.85    0.730 TRUE 
##  2 Chicago, IL (2015)         2     5.11      1.51     3.6     0.705 TRUE 
##  3 New Orleans, LA (2017)     4     5.45      2.56     2.89    0.530 TRUE 
##  4 Madison, WI (2016)         7     2.75      5.62     2.87    0.511 TRUE 
##  5 New Orleans, LA (2017)     5     9.69     12.0      2.36    0.196 TRUE 
##  6 New Orleans, LA (2016)     4     9.89      7.82     2.07    0.209 TRUE 
##  7 New Orleans, LA (2016)     5     4.95      7.02     2.07    0.295 TRUE 
##  8 Madison, WI (2016)         9     7.81      5.83     1.98    0.254 TRUE 
##  9 New Orleans, LA (2016)     6     9.78      8.41     1.37    0.140 TRUE 
## 10 Chicago, IL (2015)        12     4.8       3.66     1.14    0.237 TRUE 
## # ... with 40 more rows
…
    tblFiles
    
}

The function is then applied to every file in cityNameMapper:

# Combine the 2016 data
allData <- combineProcessedFiles(names(cityNameMapper))

# Show counts by sourceName
allData %>%
    count(source, sourceName)

## # A tibble: 23 x 3
##    source    sourceName                  n
##    <chr>     <chr>                   <int>
##  1 kdtw_2016 Detroit, MI (2016)       8818
##  2 kewr_2016 Newark, NJ (2016)        8821
##  3 kgrb_2016 Green Bay, WI (2016)     8803
##  4 kgrr_2016 Grand Rapids, MI (2016)  8812
##  5 kiah_2016 Houston, TX (2016)       8816
##  6 kind_2016 Indianapolis, IN (2016)  8767
##  7 klas_2015 Las Vegas, NV (2015)     8775
##  8 klas_2016 Las Vegas, NV (2016)     8818
##  9 klas_2017 Las Vegas, NV (2017)     8712
## 10 klnk_2016 Lincoln, NE (2016)       8813
## # ... with 13 more rows
…
