Weather Exploratory Data Analysis
…
## # A tibble: 504 x 5
##    month windDirGroup     n     pct src               
##    <fct> <fct>        <int>   <dbl> <chr>             
##  1 Jan   No Wind         46 0.0600  Detroit, MI (2016)
##  2 Jan   Variable         3 0.00391 Detroit, MI (2016)
##  3 Jan   N               26 0.0339  Detroit, MI (2016)
##  4 Jan   NNE             26 0.0339  Detroit, MI (2016)
##  5 Jan   ENE              9 0.0117  Detroit, MI (2016)
##  6 Jan   E               16 0.0209  Detroit, MI (2016)
##  7 Jan   ESE             14 0.0183  Detroit, MI (2016)
##  8 Jan   SSE             72 0.0939  Detroit, MI (2016)
##  9 Jan   S              131 0.171   Detroit, MI (2016)
## 10 Jan   SSW            158 0.206   Detroit, MI (2016)
## # ... with 494 more rows
