Weather Modeling
…
}

As an example, data for 2016 are pulled for two of the cities - Las Vegas and New Orleans:

ttLists <- createTestTrain(metarData, 
                           sources=c("klas_2016", "kmsy_2016"), 
                           vrbls=c("locale", "month", "predomDir", "TempF", "DewF", "Altimeter", "modSLP"),
                           seed=2006181356
                           )
ttLists

## $testData
## # A tibble: 5,246 x 7
##    locale               month predomDir TempF  DewF Altimeter modSLP
##    <fct>                <fct> <fct>     <dbl> <dbl>     <dbl>  <dbl>
##  1 Las Vegas, NV (2016) Jan   NE         37.0  8.06      30.2  1024 
##  2 Las Vegas, NV (2016) Jan   NE         35.1  8.96      30.2  1024 
##  3 Las Vegas, NV (2016) Jan   S          30.0  8.96      30.2  1024.
##  4 Las Vegas, NV (2016) Jan   S          27.0  8.06      30.2  1025.
##  5 Las Vegas, NV (2016) Jan   S          28.9  8.06      30.2  1025.
##  6 Las Vegas, NV (2016) Jan   S          37.9 12.0       30.2  1023.
##  7 Las Vegas, NV (2016) Jan   000        39.0 12.9       30.2  1023.
##  8 Las Vegas, NV (2016) Jan   NE         42.1 12.9       30.2  1022.
##  9 Las Vegas, NV (2016) Jan   000        41   12.9       30.2  1022.
## 10 Las Vegas, NV (2016) Jan   N          51.1 18.0       30.2  1021.
## # ... with 5,236 more rows
## 
## $trainData
## # A tibble: 12,242 x 7
##    locale                 month predomDir TempF  DewF Altimeter modSLP
##    <fct>                  <fct> <fct>     <dbl> <dbl>     <dbl>  <dbl>
##  1 Las Vegas, NV (2016)   Jul   SW        102.   21.9      29.7  1004 
##  2 New Orleans, LA (2016) Aug   SW         78.1  73.9      29.9  1012.
##  3 New Orleans, LA (2016) May   E          81.0  72.0      29.9  1012.
##  4 Las Vegas, NV (2016)   Dec   000        61.0  36.0      30.0  1017.
##  5 New Orleans, LA (2016) Dec   VRB        62.1  57.0      30.1  1019.
##  6 New Orleans, LA (2016) Mar   S          72.0  59        30.0  1016 
##  7 Las Vegas, NV (2016)   Apr   S          75.0  12.0      29.8  1008.
##  8 Las Vegas, NV (2016)   Nov   S          62.1  23        29.9  1011.
##  9 Las Vegas, NV (2016)   Dec   S          37.0  25.0      30.4  1030.
## 10 New Orleans, LA (2016) Aug   E          93.9  75.0      30.0  1016.
## # ... with 12,232 more rows
…
## # A tibble: 5,246 x 7
##    `Las Vegas, NV (~ `New Orleans, LA~ maxProb sumProb predClass locale accurate
##                <dbl>             <dbl>   <dbl>   <dbl> <fct>     <fct>  <lgl>   
##  1              0.98              0.02    0.98       1 Las Vega~ Las V~ TRUE    
##  2              1                 0       1          1 Las Vega~ Las V~ TRUE    
##  3              1                 0       1          1 Las Vega~ Las V~ TRUE    
##  4              0.98              0.02    0.98       1 Las Vega~ Las V~ TRUE    
##  5              1                 0       1          1 Las Vega~ Las V~ TRUE    
##  6              1                 0       1          1 Las Vega~ Las V~ TRUE    
##  7              1                 0       1          1 Las Vega~ Las V~ TRUE    
##  8              1                 0       1          1 Las Vega~ Las V~ TRUE    
##  9              1                 0       1          1 Las Vega~ Las V~ TRUE    
## 10              1                 0       1          1 Las Vega~ Las V~ TRUE    
## # ... with 5,236 more rows
…
## # A tibble: 5,246 x 7
##    `Las Vegas, NV (~ `New Orleans, LA~ maxProb sumProb predClass locale accurate
##                <dbl>             <dbl>   <dbl>   <dbl> <fct>     <fct>  <lgl>   
##  1              0.96              0.04    0.96       1 Las Vega~ Las V~ TRUE    
##  2              0.96              0.04    0.96       1 Las Vega~ Las V~ TRUE    
##  3              1                 0       1          1 Las Vega~ Las V~ TRUE    
##  4              1                 0       1          1 Las Vega~ Las V~ TRUE    
##  5              1                 0       1          1 Las Vega~ Las V~ TRUE    
##  6              1                 0       1          1 Las Vega~ Las V~ TRUE    
##  7              1                 0       1          1 Las Vega~ Las V~ TRUE    
##  8              1                 0       1          1 Las Vega~ Las V~ TRUE    
##  9              1                 0       1          1 Las Vega~ Las V~ TRUE    
## 10              1                 0       1          1 Las Vega~ Las V~ TRUE    
## # ... with 5,236 more rows
…
Suppose on the other hand that the model tries to distinguish New Orleans from Houston:

ttLists <- createTestTrain(metarData, 
                           sources=c("kiah_2016", "kmsy_2016"), 
                           vrbls=c("locale", "month", "predomDir", "TempF", "DewF"),
                           seed=2006181440
                           )
ttLists

## $testData
## # A tibble: 5,248 x 5
##    locale             month predomDir TempF  DewF
##    <fct>              <fct> <fct>     <dbl> <dbl>
##  1 Houston, TX (2016) Jan   N          53.1  39.9
##  2 Houston, TX (2016) Jan   N          52.0  39.9
##  3 Houston, TX (2016) Jan   N          48.0  42.1
##  4 Houston, TX (2016) Jan   N          48.0  35.1
##  5 Houston, TX (2016) Jan   N          48.0  35.1
##  6 Houston, TX (2016) Jan   N          48.9  35.1
##  7 Houston, TX (2016) Jan   N          48.0  35.1
##  8 Houston, TX (2016) Jan   N          48.0  37.0
##  9 Houston, TX (2016) Jan   N          46.9  39.0
## 10 Houston, TX (2016) Jan   N          45.0  37.0
## # ... with 5,238 more rows
## 
## $trainData
## # A tibble: 12,245 x 5
##    locale                 month predomDir TempF  DewF
##    <fct>                  <fct> <fct>     <dbl> <dbl>
##  1 New Orleans, LA (2016) Dec   N          53.1  37.9
##  2 Houston, TX (2016)     Oct   S          75.9  71.1
##  3 Houston, TX (2016)     Oct   NE         73.0  44.1
##  4 New Orleans, LA (2016) May   N          72.0  55.9
##  5 New Orleans, LA (2016) Aug   S          78.1  72.0
##  6 Houston, TX (2016)     Jun   000        78.1  75.0
##  7 Houston, TX (2016)     Mar   000        54.0  53.1
##  8 Houston, TX (2016)     Oct   N          81.0  46.0
##  9 New Orleans, LA (2016) Dec   SW         80.1  64.9
## 10 Houston, TX (2016)     Sep   S          84.0  78.1
## # ... with 12,235 more rows
…
## # A tibble: 5,248 x 7
##    `Houston, TX (20~ `New Orleans, LA~ maxProb sumProb predClass locale accurate
##                <dbl>             <dbl>   <dbl>   <dbl> <fct>     <fct>  <lgl>   
##  1              0.4               0.6     0.6        1 New Orle~ Houst~ FALSE   
##  2              0.6               0.4     0.6        1 Houston,~ Houst~ TRUE    
##  3              0.2               0.8     0.8        1 New Orle~ Houst~ FALSE   
##  4              0                 1       1          1 New Orle~ Houst~ FALSE   
##  5              0                 1       1          1 New Orle~ Houst~ FALSE   
##  6              0.06              0.94    0.94       1 New Orle~ Houst~ FALSE   
##  7              0                 1       1          1 New Orle~ Houst~ FALSE   
##  8              0                 1       1          1 New Orle~ Houst~ FALSE   
##  9              0.64              0.36    0.64       1 Houston,~ Houst~ TRUE    
## 10              1                 0       1          1 Houston,~ Houst~ TRUE    
## # ... with 5,238 more rows
…
