Weather Data Downloads
…
## Warning: Removed 1 rows containing missing values (geom_point).

## 
## Issues with clouds data at records:
## # A tibble: 32 x 2
##    dtime               origMETAR                                                
##    <dttm>              <chr>                                                    
##  1 2016-04-17 04:53:00 KGRR 170453Z AUTO A3038 RMK AO2 SLPNO 402610056 PWINO FZ~
##  2 2016-04-17 05:53:00 KGRR 170553Z AUTO A3039 RMK AO2 SLPNO 53012 PWINO FZRANO~
##  3 2016-04-17 06:53:00 KGRR 170653Z AUTO A3039 RMK AO2 SLPNO PWINO FZRANO CHINO~
##  4 2016-04-17 07:53:00 KGRR 170753Z AUTO A3039 RMK AO2 SLPNO PWINO FZRANO CHINO~
##  5 2016-04-17 08:53:00 KGRR 170853Z AUTO A3040 RMK AO2 SLPNO 53003 PWINO FZRANO~
##  6 2016-07-13 04:53:00 KGRR 130453Z AUTO A2990 RMK AO2 SLPNO PWINO CHINO RWY 8R~
##  7 2016-07-13 05:53:00 KGRR 130553Z AUTO A2990 RMK AO2 SLPNO 51010 PWINO CHINO ~
##  8 2016-07-13 06:53:00 KGRR 130653Z AUTO A2991 RMK AO2 SLPNO PWINO CHINO RWY 8R~
##  9 2016-07-13 07:53:00 KGRR 130753Z AUTO A2992 RMK AO2 SLPNO PWINO CHINO RWY 8R~
## 10 2016-07-13 08:53:00 KGRR 130853Z AUTO A2992 RMK AO2 SLPNO 51007 PWINO CHINO ~
## # ... with 22 more rows
…
