Integrate Download and EDA Functions
…
## Warning: Factor `month` contains implicit NA, consider using
## `forcats::fct_explicit_na`

## Warning: Factor `month` contains implicit NA, consider using
## `forcats::fct_explicit_na`

Daily high-low temperatures and precipitation summaries are extracted and an integrated file is produced:

# Extracted high-low temperatures
all_hilo <- map_dfr(.x=fileNames, .f=getDailyHighLow, .id="source") %>%
    mutate(source=fileNames[as.integer(source)], locale=cityNameMapper[source]) %>%
    select(source, locale, everything())
all_hilo

## # A tibble: 167,171 x 6
##    source  locale     dtime               tempData               tempFHi tempFLo
##    <chr>   <chr>      <dttm>              <chr>                    <dbl>   <dbl>
##  1 kord_2~ Chicago, ~ 2013-12-31 00:51:00 <NA>                        NA      NA
##  2 kord_2~ Chicago, ~ 2013-12-31 01:51:00 <NA>                        NA      NA
##  3 kord_2~ Chicago, ~ 2013-12-31 02:51:00 <NA>                        NA      NA
##  4 kord_2~ Chicago, ~ 2013-12-31 03:51:00 <NA>                        NA      NA
##  5 kord_2~ Chicago, ~ 2013-12-31 04:51:00 <NA>                        NA      NA
##  6 kord_2~ Chicago, ~ 2013-12-31 05:51:00 RMK AO2 SLP229 4/001 ~      13       1
##  7 kord_2~ Chicago, ~ 2013-12-31 06:51:00 <NA>                        NA      NA
##  8 kord_2~ Chicago, ~ 2013-12-31 07:51:00 <NA>                        NA      NA
##  9 kord_2~ Chicago, ~ 2013-12-31 08:51:00 <NA>                        NA      NA
## 10 kord_2~ Chicago, ~ 2013-12-31 09:51:00 <NA>                        NA      NA
## # ... with 167,161 more rows

# Plot is not created; just need the high-low data for this
# plotDailyHiLo(all_hilo, pdfName="DailyHighLow.pdf")

# Extracted precipitation amounts
all_pin <- map_dfr(.x=fileNames, .f=getPrecipAmount, .id="source") %>%
    mutate(source=fileNames[as.integer(source)], locale=cityNameMapper[source]) %>%
    select(source, locale, everything())
all_pin

## # A tibble: 167,171 x 6
##    source    locale             dtime               p1Inches p36Inches p24Inches
##    <chr>     <chr>              <dttm>                 <dbl>     <dbl>     <dbl>
##  1 kord_2014 Chicago, IL (2014) 2013-12-31 00:51:00     0        NA           NA
##  2 kord_2014 Chicago, IL (2014) 2013-12-31 01:51:00     0.01     NA           NA
##  3 kord_2014 Chicago, IL (2014) 2013-12-31 02:51:00     0.01      0.02        NA
##  4 kord_2014 Chicago, IL (2014) 2013-12-31 03:51:00     0.01     NA           NA
##  5 kord_2014 Chicago, IL (2014) 2013-12-31 04:51:00     0        NA           NA
##  6 kord_2014 Chicago, IL (2014) 2013-12-31 05:51:00     0.01      0.04        NA
##  7 kord_2014 Chicago, IL (2014) 2013-12-31 06:51:00     0        NA           NA
##  8 kord_2014 Chicago, IL (2014) 2013-12-31 07:51:00     0        NA           NA
##  9 kord_2014 Chicago, IL (2014) 2013-12-31 08:51:00    NA         0           NA
## 10 kord_2014 Chicago, IL (2014) 2013-12-31 09:51:00    NA        NA           NA
## # ... with 167,161 more rows
…
modCData <- cloudsLevel0(cData, maxHeight=12000, byVars=c("source", "sourceName", "dtime")) %>%
    mutate(type=factor(type, levels=c("VV", "OVC", "BKN", "SCT", "FEW", "CLR")))
modCData

## # A tibble: 330,918 x 6
##    source    sourceName         dtime               level height type 
##    <chr>     <chr>              <dttm>              <dbl>  <dbl> <fct>
##  1 katl_2016 Atlanta, GA (2016) 2015-12-31 00:52:00     0   -100 CLR  
##  2 katl_2016 Atlanta, GA (2016) 2015-12-31 00:52:00     1    300 FEW  
##  3 katl_2016 Atlanta, GA (2016) 2015-12-31 00:52:00     2   4000 BKN  
##  4 katl_2016 Atlanta, GA (2016) 2015-12-31 00:52:00     3   9000 OVC  
##  5 katl_2016 Atlanta, GA (2016) 2015-12-31 01:52:00     0   -100 CLR  
##  6 katl_2016 Atlanta, GA (2016) 2015-12-31 01:52:00     1    300 FEW  
##  7 katl_2016 Atlanta, GA (2016) 2015-12-31 01:52:00     2   3800 BKN  
##  8 katl_2016 Atlanta, GA (2016) 2015-12-31 01:52:00     3   9000 OVC  
##  9 katl_2016 Atlanta, GA (2016) 2015-12-31 02:52:00     0   -100 CLR  
## 10 katl_2016 Atlanta, GA (2016) 2015-12-31 02:52:00     1    300 FEW  
## # ... with 330,908 more rows
…
saveRDS(allPrecipList, "./RInputFiles/ProcessedMETAR/metar_precipLists_extra_20200625.rds")

# Example of the modCData format
modCData

## # A tibble: 330,918 x 6
##    source    sourceName         dtime               level height type 
##    <chr>     <chr>              <dttm>              <dbl>  <dbl> <fct>
##  1 katl_2016 Atlanta, GA (2016) 2015-12-31 00:52:00     0   -100 CLR  
##  2 katl_2016 Atlanta, GA (2016) 2015-12-31 00:52:00     1    300 FEW  
##  3 katl_2016 Atlanta, GA (2016) 2015-12-31 00:52:00     2   4000 BKN  
##  4 katl_2016 Atlanta, GA (2016) 2015-12-31 00:52:00     3   9000 OVC  
##  5 katl_2016 Atlanta, GA (2016) 2015-12-31 01:52:00     0   -100 CLR  
##  6 katl_2016 Atlanta, GA (2016) 2015-12-31 01:52:00     1    300 FEW  
##  7 katl_2016 Atlanta, GA (2016) 2015-12-31 01:52:00     2   3800 BKN  
##  8 katl_2016 Atlanta, GA (2016) 2015-12-31 01:52:00     3   9000 OVC  
##  9 katl_2016 Atlanta, GA (2016) 2015-12-31 02:52:00     0   -100 CLR  
## 10 katl_2016 Atlanta, GA (2016) 2015-12-31 02:52:00     1    300 FEW  
## # ... with 330,908 more rows
…
